Unibet,betway,bet777,betfirst,bwin
"Arlovski, Andrei ",Andrei Arlovski,Andrei Arlovski,Andrei Arlovski,A. Arlovski
"Struve, Stefan ",Stefan Struve,Stefan Struve,Stefan Struve,S. Struve
"Benoit, Ryan ",Ryan Benoit,Ryan Benoit,Ryan Benoit,R. Benoit
"Nam, Tyson ",Tyson Nam,Tyson Nam,Tyson Nam,T. Nam
"St. Preux, Ovince ",Ovince St. Preux,Ovince St. Preux,Ovince St. Preux,O. St. Preux
"dos Santos, Junior ",Junior dos Santos,Junior dos Santos,Junior dos Santos,J. dos Santos
"Lewis, Derrick ",Derrick Lewis,Derrick Lewis,Derrick Lewis,D. Lewis
"Overeem, Alistair ",Alistair Overeem,Alistair Overeem,Alistair Overeem,A. Overeem
"Villante, Gian ",Gian Villante,Gian Villante,Gian Villante,G. Villante
"Cormier, Daniel ",Daniel Cormier,Daniel Cormier,Daniel Cormier,D. Cormier
"Werdum, Fabricio ",Fabricio Werdum,Fabricio Werdum,Fabricio Werdum,F. Werdum
"Miocic, Stipe ",Stipe Miocic,Stipe Miocic,Stipe Miocic,S. Miocic
"Rothwell, Ben ",Ben Rothwell,Ben Rothwell,Ben Rothwell,B. Rothwell
"Harris, Walt ",Walt Harris,Walt Harris,Walt Harris,W. Harris
"Latifi, Ilir ",Ilir Latifi,Ilir Latifi,Ilir Latifi,I. Latifi
"Ngannou, Francis ",Francis Ngannou,Francis Ngannou,Francis Ngannou,F. Ngannou
"Oleinik, Aleksei ",Aleksei Oleinik,Aleksei Oleinik,Aleksei Oleinik,A. Oleinik
"Blaydes, Curtis ",Curtis Blaydes,Curtis Blaydes,Curtis Blaydes,C. Blaydes
"Rogerio de Lima, Marcos ",Marcos Rogerio de Lima,Marcos Rogerio de Lima,Marcos Rogerio de Lima,M. Rogerio de Lima
"Tybura, Marcin ",Marcin Tybura,Marcin Tybura,Marcin Tybura,M. Tybura
"Abdurakhimov, Shamil ",Shamil Abdurakhimov,Shamil Abdurakhimov,Shamil Abdurakhimov,S. Abdurakhimov
"Sherman, Chase ",Chase Sherman,Chase Sherman,Chase Sherman,C. Sherman
"Volkov, Alexander ",Alexander Volkov,Alexander Volkov,Alexander Volkov,A. Volkov
"Duffee, Todd ",Todd Duffee,Todd Duffee,Todd Duffee,T. Duffee
"Hardy, Greg ",Greg Hardy,Greg Hardy,Greg Hardy,G. Hardy
"Collier, Jake ",Jake Collier,Jake Collier,Jake Collier,J. Collier
"Tuivasa, Tai ",Tai Tuivasa,Tai Tuivasa,Tai Tuivasa,T. Tuivasa
"Rozenstruik, Jairzinho ",Jairzinho Rozenstruik,Jairzinho Rozenstruik,Jairzinho Rozenstruik,J. Rozenstruik
"Greene, Maurice ",Maurice Greene,Maurice Greene,Maurice Greene,M. Greene
"Ivanov, Blagoy ",Blagoy Ivanov,Blagoy Ivanov,Blagoy Ivanov,B. Ivanov
"Sakai, Augusto ",Augusto Sakai,Augusto Sakai,Augusto Sakai,A. Sakai
"Gane, Ciryl ",Ciryl Gane,Ciryl Gane,Ciryl Gane,C. Gane
"Pavlovich, Sergey ",Sergey Pavlovich,Sergey Pavlovich,Sergey Pavlovich,S. Pavlovich
"Spivac, Serghei ",Serghei Spivac,Serghei Spivac,Serghei Spivac,S. Spivac
"Hughes, Jeff ",Jeff Hughes,Jeff Hughes,Jeff Hughes,J. Hughes
"Boser, Tanner ",Tanner Boser,Tanner Boser,Tanner Boser,T. Boser
"De Castro, Yorgan ",Yorgan De Castro,Yorgan De Castro,Yorgan De Castro,Y. De Castro
"Pessoa, Raphael ",Raphael Pessoa,Raphael Pessoa,Raphael Pessoa,R. Pessoa
"Tafa, Justin ",Justin Tafa,Justin Tafa,Justin Tafa,J. Tafa
"Danho, Jarjis ",Jarjis Danho,Jarjis Danho,Jarjis Danho,J. Danho
"Sosoli, Ben ",Ben Sosoli,Ben Sosoli,Ben Sosoli,B. Sosoli
"Mayes, Don'Tale ",Don'Tale Mayes,Don'Tale Mayes,Don'Tale Mayes,D. Mayes
"Espino, Juan ",Juan Espino,Juan Espino,Juan Espino,J. Espino
"Nascimento, Rodrigo ",Rodrigo Nascimento,Rodrigo Nascimento,Rodrigo Nascimento,R. Nascimento
"Lins, Philipe ",Philipe Lins,Philipe Lins,Philipe Lins,P. Lins
"Villanueva, Ike ",Ike Villanueva,Ike Villanueva,Ike Villanueva,I. Villanueva
"Aspinall, Tom ",Tom Aspinall,Tom Aspinall,Tom Aspinall,T. Aspinall
"Felipe, Carlos ",Carlos Felipe,Carlos Felipe,Carlos Felipe,C. Felipe
"Lewis-Parry, Chi ",Chi Lewis-Parry,Chi Lewis-Parry,Chi Lewis-Parry,C. Lewis-Parry
"Romanov, Alexander ",Alexander Romanov,Alexander Romanov,Alexander Romanov,A. Romanov
"Herman, Ed ",Ed Herman,Ed Herman,Ed Herman,E. Herman
"Jones, Jon ",Jon Jones,Jon Jones,Jon Jones,J. Jones
"Rua, Mauricio ",Mauricio Rua,Mauricio Rua,Mauricio Rua,M. Rua
"Teixeira, Glover ",Glover Teixeira,Glover Teixeira,Glover Teixeira,G. Teixeira
"Santos, Thiago ",Thiago Santos,Thiago Santos,Thiago Santos,T. Santos
"Alvey, Sam ",Sam Alvey,Sam Alvey,Sam Alvey,S. Alvey
"Smith, Anthony ",Anthony Smith,Anthony Smith,Anthony Smith,A. Smith
"Anderson, Corey ",Corey Anderson,Corey Anderson,Corey Anderson,C. Anderson
"Blachowicz, Jan ",Jan Blachowicz,Jan Blachowicz,Jan Blachowicz,J. Blachowicz
"Krylov, Nikita ",Nikita Krylov,Nikita Krylov,Nikita Krylov,N. Krylov
"Rogerio Nogueira, Antonio ",Antonio Rogerio Nogueira,Antonio Rogerio Nogueira,Antonio Rogerio Nogueira,A. Rogerio Nogueira
"Cirkunov, Misha ",Misha Cirkunov,Misha Cirkunov,Misha Cirkunov,M. Cirkunov
"Clark, Devin ",Devin Clark,Devin Clark,Devin Clark,D. Clark
"Craig, Paul ",Paul Craig,Paul Craig,Paul Craig,P. Craig
"Rountree, Khalil ",Khalil Rountree,Khalil Rountree,Khalil Rountree,K. Rountree
"Oezdemir, Volkan ",Volkan Oezdemir,Volkan Oezdemir,Volkan Oezdemir,V. Oezdemir
"Cutelaba, Ion ",Ion Cutelaba,Ion Cutelaba,Ion Cutelaba,I. Cutelaba
"Reyes, Dominick ",Dominick Reyes,Dominick Reyes,Dominick Reyes,D. Reyes
"Ledet, Justin ",Justin Ledet,Justin Ledet,Justin Ledet,J. Ledet
"Pedro, Tyson ",Tyson Pedro,Tyson Pedro,Tyson Pedro,T. Pedro
"Ankalaev, Magomed ",Magomed Ankalaev,Magomed Ankalaev,Magomed Ankalaev,M. Ankalaev
"Rakic, Aleksandar ",Aleksandar Rakic,Aleksandar Rakic,Aleksandar Rakic,A. Rakic
"Walker, Johnny ",Johnny Walker,Johnny Walker,Johnny Walker,J. Walker
"Oleksiejczuk, Michal ",Michal Oleksiejczuk,Michal Oleksiejczuk,Michal Oleksiejczuk,M. Oleksiejczuk
"Spann, Ryan ",Ryan Spann,Ryan Spann,Ryan Spann,R. Spann
"Crute, Jim ",Jim Crute,Jim Crute,Jim Crute,J. Crute
"Antigulov, Gadzhimurad ",Gadzhimurad Antigulov,Gadzhimurad Antigulov,Gadzhimurad Antigulov,G. Antigulov
"Abreu, Klidson ",Klidson Abreu,Klidson Abreu,Klidson Abreu,K. Abreu
"Rodriguez, Mike ",Mike Rodriguez,Mike Rodriguez,Mike Rodriguez,M. Rodriguez
"Moreira, Vinicius ",Vinicius Moreira,Vinicius Moreira,Vinicius Moreira,V. Moreira
"Townsend, Dequan ",Dequan Townsend,Dequan Townsend,Dequan Townsend,D. Townsend
"Hill, Jamahal ",Jamahal Hill,Jamahal Hill,Jamahal Hill,J. Hill
"Un Jung, Da ",Da Un Jung,Da Un Jung,Da Un Jung,D. Un Jung
"Menifield, Alonzo ",Alonzo Menifield,Alonzo Menifield,Alonzo Menifield,A. Menifield
"Lungiambula, Dalcha ",Dalcha Lungiambula,Dalcha Lungiambula,Dalcha Lungiambula,D. Lungiambula
"Nzechukwu, Kennedy ",Kennedy Nzechukwu,Kennedy Nzechukwu,Kennedy Nzechukwu,K. Nzechukwu
"Saki, Gokhan ",Gokhan Saki,Gokhan Saki,Gokhan Saki,G. Saki
"Ibragimov, Khadis ",Khadis Ibragimov,Khadis Ibragimov,Khadis Ibragimov,K. Ibragimov
"Hu, Yaozong ",Yaozong Hu,Yaozong Hu,Yaozong Hu,Y. Hu
"Prachnio, Marcin ",Marcin Prachnio,Marcin Prachnio,Marcin Prachnio,M. Prachnio
"Allan, John ",John Allan,John Allan,John Allan,J. Allan
"Camur, Aleksa ",Aleksa Camur,Aleksa Camur,Aleksa Camur,A. Camur
"Gamzatov, Shamil ",Shamil Gamzatov,Shamil Gamzatov,Shamil Gamzatov,S. Gamzatov
"Negumereanu, Nick ",Nick Negumereanu,Nick Negumereanu,Nick Negumereanu,N. Negumereanu
"Bukauskas, Modestas ",Modestas Bukauskas,Modestas Bukauskas,Modestas Bukauskas,M. Bukauskas
"Dolidze, Roman ",Roman Dolidze,Roman Dolidze,Roman Dolidze,R. Dolidze
"Prochazka, Jiri ",Jiri Prochazka,Jiri Prochazka,Jiri Prochazka,J. Prochazka
"Silva, Anderson ",Anderson Silva,Anderson Silva,Anderson Silva,A. Silva
"Brunson, Derek ",Derek Brunson,Derek Brunson,Derek Brunson,D. Brunson
"Souza, Ronaldo ",Ronaldo Souza,Ronaldo Souza,Ronaldo Souza,R. Souza
"Tavares, Brad ",Brad Tavares,Brad Tavares,Brad Tavares,B. Tavares
"Gastelum, Kelvin ",Kelvin Gastelum,Kelvin Gastelum,Kelvin Gastelum,K. Gastelum
"Weidman, Chris ",Chris Weidman,Chris Weidman,Chris Weidman,C. Weidman
"Hall, Uriah ",Uriah Hall,Uriah Hall,Uriah Hall,U. Hall
"Whittaker, Robert ",Robert Whittaker,Robert Whittaker,Robert Whittaker,R. Whittaker
"Romero, Yoel ",Yoel Romero,Yoel Romero,Yoel Romero,Y. Romero
"Jotko, Krzysztof ",Krzysztof Jotko,Krzysztof Jotko,Krzysztof Jotko,K. Jotko
"Akhmedov, Omari ",Omari Akhmedov,Omari Akhmedov,Omari Akhmedov,O. Akhmedov
"Cummings, Zak ",Zak Cummings,Zak Cummings,Zak Cummings,Z. Cummings
"Carlos Junior, Antonio ",Antonio Carlos Junior,Antonio Carlos Junior,Antonio Carlos Junior,A. Carlos Junior
"Hermansson, Jack ",Jack Hermansson,Jack Hermansson,Jack Hermansson,J. Hermansson
"Cannonier, Jared ",Jared Cannonier,Jared Cannonier,Jared Cannonier,J. Cannonier
"Meerschaert, Gerald ",Gerald Meerschaert,Gerald Meerschaert,Gerald Meerschaert,G. Meerschaert
"Anders, Eryk ",Eryk Anders,Eryk Anders,Eryk Anders,E. Anders
"Stewart, Darren ",Darren Stewart,Darren Stewart,Darren Stewart,D. Stewart
"Till, Darren ",Darren Till,Darren Till,Darren Till,D. Till
"Sobotta, Peter ",Peter Sobotta,Peter Sobotta,Peter Sobotta,P. Sobotta
"Adesanya, Israel ",Israel Adesanya,Israel Adesanya,Israel Adesanya,I. Adesanya
"Vettori, Marvin ",Marvin Vettori,Marvin Vettori,Marvin Vettori,M. Vettori
"Sanchez, Andrew ",Andrew Sanchez,Andrew Sanchez,Andrew Sanchez,A. Sanchez
"Di Chirico, Alessio ",Alessio Di Chirico,Alessio Di Chirico,Alessio Di Chirico,A. Di Chirico
"Marshman, Jack ",Jack Marshman,Jack Marshman,Jack Marshman,J. Marshman
"Spicely, Eric ",Eric Spicely,Eric Spicely,Eric Spicely,E. Spicely
"Breese, Tom ",Tom Breese,Tom Breese,Tom Breese,T. Breese
"Roberson, Karl ",Karl Roberson,Karl Roberson,Karl Roberson,K. Roberson
"Henrique Costa, Paulo ",Paulo Henrique Costa,Paulo Henrique Costa,Paulo Henrique Costa,P. Henrique Costa
"Fabinski, Bartosz ",Bartosz Fabinski,Bartosz Fabinski,Bartosz Fabinski,B. Fabinski
"Giles, Trevin ",Trevin Giles,Trevin Giles,Trevin Giles,T. Giles
"Perez, Markus ",Markus Perez,Markus Perez,Markus Perez,M. Perez
"Piechota, Oskar ",Oskar Piechota,Oskar Piechota,Oskar Piechota,O. Piechota
"Shahbazyan, Edmen ",Edmen Shahbazyan,Edmen Shahbazyan,Edmen Shahbazyan,E. Shahbazyan
"Heinisch, Ian ",Ian Heinisch,Ian Heinisch,Ian Heinisch,I. Heinisch
"Phillips, John ",John Phillips,John Phillips,John Phillips,J. Phillips
"Safarov, Saparbek ",Saparbek Safarov,Saparbek Safarov,Saparbek Safarov,S. Safarov
"Byrd, Charles ",Charles Byrd,Charles Byrd,Charles Byrd,C. Byrd
"Hernandez, Anthony ",Anthony Hernandez,Anthony Hernandez,Anthony Hernandez,A. Hernandez
"Lewis, Bevon ",Bevon Lewis,Bevon Lewis,Bevon Lewis,B. Lewis
"Winn, Deron ",Deron Winn,Deron Winn,Deron Winn,D. Winn
"Barriault, Marc-Andre ",Marc-Andre Barriault,Marc-Andre Barriault,Marc-Andre Barriault,M. Barriault
"Allen, Brendan ",Brendan Allen,Brendan Allen,Brendan Allen,B. Allen
"Muradov, Makhmud ",Makhmud Muradov,Makhmud Muradov,Makhmud Muradov,M. Muradov
"Vieira, Rodolfo ",Rodolfo Vieira,Rodolfo Vieira,Rodolfo Vieira,R. Vieira
"Marquez, Julian ",Julian Marquez,Julian Marquez,Julian Marquez,J. Marquez
"Yong Park, Jun ",Jun Yong Park,Jun Yong Park,Jun Yong Park,J. Yong Park
"Turman, Wellington ",Wellington Turman,Wellington Turman,Wellington Turman,W. Turman
"Amedovski, Alen ",Alen Amedovski,Alen Amedovski,Alen Amedovski,A. Amedovski
"Azaitar, Abu ",Abu Azaitar,Abu Azaitar,Abu Azaitar,A. Azaitar
"Muniz, Andre ",Andre Muniz,Andre Muniz,Andre Muniz,A. Muniz
"Soriano, Punahele ",Punahele Soriano,Punahele Soriano,Punahele Soriano,P. Soriano
"Arroyo, Antonio ",Antonio Arroyo,Antonio Arroyo,Antonio Arroyo,A. Arroyo
"Kopylov, Roman ",Roman Kopylov,Roman Kopylov,Roman Kopylov,R. Kopylov
"Pitolo, Maki ",Maki Pitolo,Maki Pitolo,Maki Pitolo,M. Pitolo
"Yandiev, Adam ",Adam Yandiev,Adam Yandiev,Adam Yandiev,A. Yandiev
"Silva, Bruno ",Bruno Silva,Bruno Silva,Bruno Silva,B. Silva
"Todorovic, Dusko ",Dusko Todorovic,Dusko Todorovic,Dusko Todorovic,D. Todorovic
"Cerrone, Donald ",Donald Cerrone,Donald Cerrone,Donald Cerrone,D. Cerrone
"Maia, Demian ",Demian Maia,Demian Maia,Demian Maia,D. Maia
"Sanchez, Diego ",Diego Sanchez,Diego Sanchez,Diego Sanchez,D. Sanchez
"dos Anjos, Rafael ",Rafael dos Anjos,Rafael dos Anjos,Rafael dos Anjos,R. dos Anjos
"Brown, Matt ",Matt Brown,Matt Brown,Matt Brown,M. Brown
"Diaz, Nate ",Nate Diaz,Nate Diaz,Nate Diaz,N. Diaz
"Pettis, Anthony ",Anthony Pettis,Anthony Pettis,Anthony Pettis,A. Pettis
"Lawler, Robbie ",Robbie Lawler,Robbie Lawler,Robbie Lawler,R. Lawler
"Magny, Neil ",Neil Magny,Neil Magny,Neil Magny,N. Magny
"Masvidal, Jorge ",Jorge Masvidal,Jorge Masvidal,Jorge Masvidal,J. Masvidal
"Condit, Carlos ",Carlos Condit,Carlos Condit,Carlos Condit,C. Condit
"Means, Tim ",Tim Means,Tim Means,Tim Means,T. Means
"Woodley, Tyron ",Tyron Woodley,Tyron Woodley,Tyron Woodley,T. Woodley
"Oliveira, Alex ",Alex Oliveira,Alex Oliveira,Alex Oliveira,A. Oliveira
"McGee, Court ",Court McGee,Court McGee,Court McGee,C. McGee
"Burns, Gilbert ",Gilbert Burns,Gilbert Burns,Gilbert Burns,G. Burns
"Thompson, Stephen ",Stephen Thompson,Stephen Thompson,Stephen Thompson,S. Thompson
"Luque, Vicente ",Vicente Luque,Vicente Luque,Vicente Luque,V. Luque
"Chiesa, Michael ",Michael Chiesa,Michael Chiesa,Michael Chiesa,M. Chiesa
"Rocco Martin, Anthony ",Anthony Rocco Martin,Anthony Rocco Martin,Anthony Rocco Martin,A. Rocco Martin
"Vick, James ",James Vick,James Vick,James Vick,J. Vick
"Koch, Erik ",Erik Koch,Erik Koch,Erik Koch,E. Koch
"Khabilov, Rustam ",Rustam Khabilov,Rustam Khabilov,Rustam Khabilov,R. Khabilov
"Prazeres, Michel ",Michel Prazeres,Michel Prazeres,Michel Prazeres,M. Prazeres
"Jingliang, Li ",Li Jingliang,Li Jingliang,Li Jingliang,L. Jingliang
"Matthews, Jake ",Jake Matthews,Jake Matthews,Jake Matthews,J. Matthews
"Krause, James ",James Krause,James Krause,James Krause,J. Krause
"Nelson, Gunnar ",Gunnar Nelson,Gunnar Nelson,Gunnar Nelson,G. Nelson
"Covington, Colby ",Colby Covington,Colby Covington,Colby Covington,C. Covington
"Edwards, Leon ",Leon Edwards,Leon Edwards,Leon Edwards,L. Edwards
"McGregor, Conor ",Conor McGregor,Conor McGregor,Conor McGregor,C. McGregor
"Jouban, Alan ",Alan Jouban,Alan Jouban,Alan Jouban,A. Jouban
"Perry, Mike ",Mike Perry,Mike Perry,Mike Perry,M. Perry
"Usman, Kamaru ",Kamaru Usman,Kamaru Usman,Kamaru Usman,K. Usman
"Ponzinibbio, Santiago ",Santiago Ponzinibbio,Santiago Ponzinibbio,Santiago Ponzinibbio,S. Ponzinibbio
"Alves, Warlley ",Warlley Alves,Warlley Alves,Warlley Alves,W. Alves
"Price, Niko ",Niko Price,Niko Price,Niko Price,N. Price
"Zaleski, Elizeu ",Elizeu Zaleski,Elizeu Zaleski,Elizeu Zaleski,E. Zaleski
"Muhammad, Belal ",Belal Muhammad,Belal Muhammad,Belal Muhammad,B. Muhammad
"Strickland, Sean ",Sean Strickland,Sean Strickland,Sean Strickland,S. Strickland
"Morono, Alex ",Alex Morono,Alex Morono,Alex Morono,A. Morono
"Laprise, Chad ",Chad Laprise,Chad Laprise,Chad Laprise,C. Laprise
"Roberts, Danny ",Danny Roberts,Danny Roberts,Danny Roberts,D. Roberts
"Barberena, Bryan ",Bryan Barberena,Bryan Barberena,Bryan Barberena,B. Barberena
"Brown, Randy ",Randy Brown,Randy Brown,Randy Brown,R. Brown
"Griffin, Max ",Max Griffin,Max Griffin,Max Griffin,M. Griffin
"Lima, Dheigo ",Dheigo Lima,Dheigo Lima,Dheigo Lima,D. Lima
"Scott, Bradley ",Bradley Scott,Bradley Scott,Bradley Scott,B. Scott
"Gall, Mickey ",Mickey Gall,Mickey Gall,Mickey Gall,M. Gall
"Holland, Kevin ",Kevin Holland,Kevin Holland,Kevin Holland,K. Holland
"Neal, Geoffrey ",Geoffrey Neal,Geoffrey Neal,Geoffrey Neal,G. Neal
"Silva, Claudio ",Claudio Silva,Claudio Silva,Claudio Silva,C. Silva
"Razak Alhassan, Abdul ",Abdul Razak Alhassan,Abdul Razak Alhassan,Abdul Razak Alhassan,A. Razak Alhassan
"Song, Kenan ",Kenan Song,Kenan Song,Kenan Song,K. Song
"Good, Lyman ",Lyman Good,Lyman Good,Lyman Good,L. Good
"Dalby, Nicolas ",Nicolas Dalby,Nicolas Dalby,Nicolas Dalby,N. Dalby
"Emeev, Ramazan ",Ramazan Emeev,Ramazan Emeev,Ramazan Emeev,R. Emeev
"Salikhov, Muslim ",Muslim Salikhov,Muslim Salikhov,Muslim Salikhov,M. Salikhov
"Weber Meek, Emil ",Emil Weber Meek,Emil Weber Meek,Emil Weber Meek,E. Weber Meek
"Grant, Dwight ",Dwight Grant,Dwight Grant,Dwight Grant,D. Grant
"Staropoli, Laureano ",Laureano Staropoli,Laureano Staropoli,Laureano Staropoli,L. Staropoli
"Pereira, Michel ",Michel Pereira,Michel Pereira,Michel Pereira,M. Pereira
"Potter, Callan ",Callan Potter,Callan Potter,Callan Potter,C. Potter
"Zawada, David ",David Zawada,David Zawada,David Zawada,D. Zawada
"Baeza, Miguel ",Miguel Baeza,Miguel Baeza,Miguel Baeza,M. Baeza
"Brady, Sean ",Sean Brady,Sean Brady,Sean Brady,S. Brady
"Rodriguez, Daniel ",Daniel Rodriguez,Daniel Rodriguez,Daniel Rodriguez,D. Rodriguez
"Khandozhko, Sergey ",Sergey Khandozhko,Sergey Khandozhko,Sergey Khandozhko,S. Khandozhko
"Imadaev, Zelim ",Zelim Imadaev,Zelim Imadaev,Zelim Imadaev,Z. Imadaev
"Sato, Takashi ",Takashi Sato,Takashi Sato,Takashi Sato,T. Sato
"Williams, Khaos ",Khaos Williams,Khaos Williams,Khaos Williams,K. Williams
"Green, Gabriel ",Gabriel Green,Gabriel Green,Gabriel Green,G. Green
"Nurmagomedov, Abubakar ",Abubakar Nurmagomedov,Abubakar Nurmagomedov,Abubakar Nurmagomedov,A. Nurmagomedov
"Sekulic, Stefan ",Stefan Sekulic,Stefan Sekulic,Stefan Sekulic,S. Sekulic
"Williams, Cole ",Cole Williams,Cole Williams,Cole Williams,C. Williams
"Rakhmonov, Shavkat ",Shavkat Rakhmonov,Shavkat Rakhmonov,Shavkat Rakhmonov,S. Rakhmonov
"Rowe, Philip ",Philip Rowe,Philip Rowe,Philip Rowe,P. Rowe
"Miller, Jim ",Jim Miller,Jim Miller,Jim Miller,J. Miller
"Guida, Clay ",Clay Guida,Clay Guida,Clay Guida,C. Guida
"Lauzon, Joe ",Joe Lauzon,Joe Lauzon,Joe Lauzon,J. Lauzon
"Oliveira, Charles ",Charles Oliveira,Charles Oliveira,Charles Oliveira,C. Oliveira
"Poirier, Dustin ",Dustin Poirier,Dustin Poirier,Dustin Poirier,D. Poirier
"Johnson, Michael ",Michael Johnson,Michael Johnson,Michael Johnson,M. Johnson
"Trinaldo, Francisco ",Francisco Trinaldo,Francisco Trinaldo,Francisco Trinaldo,F. Trinaldo
"Dunham, Evan ",Evan Dunham,Evan Dunham,Evan Dunham,E. Dunham
"Ferguson, Tony ",Tony Ferguson,Tony Ferguson,Tony Ferguson,T. Ferguson
"Dariush, Beneil ",Beneil Dariush,Beneil Dariush,Beneil Dariush,B. Dariush
"Lee, Kevin ",Kevin Lee,Kevin Lee,Kevin Lee,K. Lee
"Makdessi, John ",John Makdessi,John Makdessi,John Makdessi,J. Makdessi
"Wiman, Matt ",Matt Wiman,Matt Wiman,Matt Wiman,M. Wiman
"Green, Bobby ",Bobby Green,Bobby Green,Bobby Green,B. Green
"Dober, Drew ",Drew Dober,Drew Dober,Drew Dober,D. Dober
"Hooker, Daniel ",Daniel Hooker,Daniel Hooker,Daniel Hooker,D. Hooker
"Felder, Paul ",Paul Felder,Paul Felder,Paul Felder,P. Felder
"Iaquinta, Al ",Al Iaquinta,Al Iaquinta,Al Iaquinta,A. Iaquinta
"Medeiros, Yancy ",Yancy Medeiros,Yancy Medeiros,Yancy Medeiros,Y. Medeiros
"Nurmagomedov, Khabib ",Khabib Nurmagomedov,Khabib Nurmagomedov,Khabib Nurmagomedov,K. Nurmagomedov
"Ray, Steven ",Steven Ray,Steven Ray,Steven Ray,S. Ray
"Diego Ferreira, Carlos ",Carlos Diego Ferreira,Carlos Diego Ferreira,Carlos Diego Ferreira,C. Diego Ferreira
"Holtzman, Scott ",Scott Holtzman,Scott Holtzman,Scott Holtzman,S. Holtzman
"Moicano, Renato ",Renato Moicano,Renato Moicano,Renato Moicano,R. Moicano
"Vannata, Lando ",Lando Vannata,Lando Vannata,Lando Vannata,L. Vannata
"Makhachev, Islam ",Islam Makhachev,Islam Makhachev,Islam Makhachev,I. Makhachev
"Diakiese, Marc ",Marc Diakiese,Marc Diakiese,Marc Diakiese,M. Diakiese
"Benitez, Gabriel ",Gabriel Benitez,Gabriel Benitez,Gabriel Benitez,G. Benitez
"Yakovlev, Alexander ",Alexander Yakovlev,Alexander Yakovlev,Alexander Yakovlev,A. Yakovlev
"Santos, Leonardo ",Leonardo Santos,Leonardo Santos,Leonardo Santos,L. Santos
"Gillespie, Gregor ",Gregor Gillespie,Gregor Gillespie,Gregor Gillespie,G. Gillespie
"Gaethje, Justin ",Justin Gaethje,Justin Gaethje,Justin Gaethje,J. Gaethje
"Klose, Drakkar ",Drakkar Klose,Drakkar Klose,Drakkar Klose,D. Klose
"Patrick, Alan ",Alan Patrick,Alan Patrick,Alan Patrick,A. Patrick
"Pichel, Vinc ",Vinc Pichel,Vinc Pichel,Vinc Pichel,V. Pichel
"Duffy, Joseph ",Joseph Duffy,Joseph Duffy,Joseph Duffy,J. Duffy
"Giagos, Christos ",Christos Giagos,Christos Giagos,Christos Giagos,C. Giagos
"Hadzovic, Damir ",Damir Hadzovic,Damir Hadzovic,Damir Hadzovic,D. Hadzovic
"Teymur, David ",David Teymur,David Teymur,David Teymur,D. Teymur
"Pena, Luis ",Luis Pena,Luis Pena,Luis Pena,L. Pena
"Ramos, Davi ",Davi Ramos,Davi Ramos,Davi Ramos,D. Ramos
"Silva, Joaquim ",Joaquim Silva,Joaquim Silva,Joaquim Silva,J. Silva
"Gordon, Jared ",Jared Gordon,Jared Gordon,Jared Gordon,J. Gordon
"Camacho, Frank ",Frank Camacho,Frank Camacho,Frank Camacho,F. Camacho
"Gouti, Thibault ",Thibault Gouti,Thibault Gouti,Thibault Gouti,T. Gouti
"Haqparast, Nasrat ",Nasrat Haqparast,Nasrat Haqparast,Nasrat Haqparast,N. Haqparast
"Roberts, Roosevelt ",Roosevelt Roberts,Roosevelt Roberts,Roosevelt Roberts,R. Roberts
"Hernandez, Alexander ",Alexander Hernandez,Alexander Hernandez,Alexander Hernandez,A. Hernandez
"Mustafaev, Magomed ",Magomed Mustafaev,Magomed Mustafaev,Magomed Mustafaev,M. Mustafaev
"Frevola, Matt ",Matt Frevola,Matt Frevola,Matt Frevola,M. Frevola
"Gruetzemacher, Chris ",Chris Gruetzemacher,Chris Gruetzemacher,Chris Gruetzemacher,C. Gruetzemacher
"Moises, Thiago ",Thiago Moises,Thiago Moises,Thiago Moises,T. Moises
"Turner, Jalin ",Jalin Turner,Jalin Turner,Jalin Turner,J. Turner
"Packalen, Teemu ",Teemu Packalen,Teemu Packalen,Teemu Packalen,T. Packalen
"Ismagulov, Damir ",Damir Ismagulov,Damir Ismagulov,Damir Ismagulov,D. Ismagulov
"Puelles, Claudio ",Claudio Puelles,Claudio Puelles,Claudio Puelles,C. Puelles
"Smith, Devonte ",Devonte Smith,Devonte Smith,Devonte Smith,D. Smith
"Ayari, Jessin ",Jessin Ayari,Jessin Ayari,Jessin Ayari,J. Ayari
"Hubbard, Austin ",Austin Hubbard,Austin Hubbard,Austin Hubbard,A. Hubbard
"Wisely, Eric ",Eric Wisely,Eric Wisely,Eric Wisely,E. Wisely
"Madge, Don ",Don Madge,Don Madge,Don Madge,D. Madge
"O. Madsen, Mark ",Mark O. Madsen,Mark O. Madsen,Mark O. Madsen,M. O. Madsen
"Morales, Omar ",Omar Morales,Omar Morales,Omar Morales,O. Morales
"Riddell, Brad ",Brad Riddell,Brad Riddell,Brad Riddell,B. Riddell
"Alvarez, Joel ",Joel Alvarez,Joel Alvarez,Joel Alvarez,J. Alvarez
"da Silva, Alex ",Alex da Silva,Alex da Silva,Alex da Silva,A. da Silva
"Fiziev, Rafael ",Rafael Fiziev,Rafael Fiziev,Rafael Fiziev,R. Fiziev
"Tsarukyan, Arman ",Arman Tsarukyan,Arman Tsarukyan,Arman Tsarukyan,A. Tsarukyan
"Weaver, Brok ",Brok Weaver,Brok Weaver,Brok Weaver,B. Weaver
"Vargas, Rodrigo ",Rodrigo Vargas,Rodrigo Vargas,Rodrigo Vargas,R. Vargas
"Azaitar, Ottman ",Ottman Azaitar,Ottman Azaitar,Ottman Azaitar,O. Azaitar
"Connelly, Tristan ",Tristan Connelly,Tristan Connelly,Tristan Connelly,T. Connelly
"Solecki, Joseph ",Joseph Solecki,Joseph Solecki,Joseph Solecki,J. Solecki
"Worthy, Khama ",Khama Worthy,Khama Worthy,Khama Worthy,K. Worthy
"Culibao, Josh ",Josh Culibao,Josh Culibao,Josh Culibao,J. Culibao
"Garcia Jr., Steve ",Steve Garcia Jr.,Steve Garcia Jr.,Steve Garcia Jr.,S. Garcia Jr.
"Mullarkey, Jamie ",Jamie Mullarkey,Jamie Mullarkey,Jamie Mullarkey,J. Mullarkey
"Pearce, Jonathan ",Jonathan Pearce,Jonathan Pearce,Jonathan Pearce,J. Pearce
"Reyes, Alex ",Alex Reyes,Alex Reyes,Alex Reyes,A. Reyes
"Vendramini, Luigi ",Luigi Vendramini,Luigi Vendramini,Luigi Vendramini,L. Vendramini
"Ziam, Fares ",Fares Ziam,Fares Ziam,Fares Ziam,F. Ziam
"Bogatov, Roman ",Roman Bogatov,Roman Bogatov,Roman Bogatov,R. Bogatov
"Herbert, Jai ",Jai Herbert,Jai Herbert,Jai Herbert,J. Herbert
"Munoz, Alex ",Alex Munoz,Alex Munoz,Alex Munoz,A. Munoz
"Stephens, Jeremy ",Jeremy Stephens,Jeremy Stephens,Jeremy Stephens,J. Stephens
"Swanson, Cub ",Cub Swanson,Cub Swanson,Cub Swanson,C. Swanson
"Lentz, Nik ",Nik Lentz,Nik Lentz,Nik Lentz,N. Lentz
"Barboza, Edson ",Edson Barboza,Edson Barboza,Edson Barboza,E. Barboza
"Holloway, Max ",Max Holloway,Max Holloway,Max Holloway,M. Holloway
"Elkins, Darren ",Darren Elkins,Darren Elkins,Darren Elkins,D. Elkins
"Lamas, Ricardo ",Ricardo Lamas,Ricardo Lamas,Ricardo Lamas,R. Lamas
"Caceres, Alex ",Alex Caceres,Alex Caceres,Alex Caceres,A. Caceres
"Fili, Andre ",Andre Fili,Andre Fili,Andre Fili,A. Fili
"Skelly, Chas ",Chas Skelly,Chas Skelly,Chas Skelly,C. Skelly
"Rodriguez, Yair ",Yair Rodriguez,Yair Rodriguez,Yair Rodriguez,Y. Rodriguez
"Jung, Chan-Sung ",Chan-Sung Jung,Chan-Sung Jung,Chan-Sung Jung,C. Jung
"Bektic, Mirsad ",Mirsad Bektic,Mirsad Bektic,Mirsad Bektic,M. Bektic
"Volkanovski, Alexander ",Alexander Volkanovski,Alexander Volkanovski,Alexander Volkanovski,A. Volkanovski
"Ortega, Brian ",Brian Ortega,Brian Ortega,Brian Ortega,B. Ortega
"Emmett, Josh ",Josh Emmett,Josh Emmett,Josh Emmett,J. Emmett
"Allen, Arnold ",Arnold Allen,Arnold Allen,Arnold Allen,A. Allen
"Burgos, Shane ",Shane Burgos,Shane Burgos,Shane Burgos,S. Burgos
"Ige, Dan ",Dan Ige,Dan Ige,Dan Ige,D. Ige
"Amirkhani, Makwan ",Makwan Amirkhani,Makwan Amirkhani,Makwan Amirkhani,M. Amirkhani
"Kattar, Calvin ",Calvin Kattar,Calvin Kattar,Calvin Kattar,C. Kattar
"Silva de Andrade, Douglas ",Douglas Silva de Andrade,Douglas Silva de Andrade,Douglas Silva de Andrade,D. Silva de Andrade
"Rosa, Charles ",Charles Rosa,Charles Rosa,Charles Rosa,C. Rosa
"Magomedsharipov, Zabit ",Zabit Magomedsharipov,Zabit Magomedsharipov,Zabit Magomedsharipov,Z. Magomedsharipov
"Ramos, Ricardo ",Ricardo Ramos,Ricardo Ramos,Ricardo Ramos,R. Ramos
"Choi, Dooho ",Dooho Choi,Dooho Choi,Dooho Choi,D. Choi
"Glenn, Rick ",Rick Glenn,Rick Glenn,Rick Glenn,R. Glenn
"Tukhugov, Zubaira ",Zubaira Tukhugov,Zubaira Tukhugov,Zubaira Tukhugov,Z. Tukhugov
"Arce, Julio ",Julio Arce,Julio Arce,Julio Arce,J. Arce
"Dawodu, Hakeem ",Hakeem Dawodu,Hakeem Dawodu,Hakeem Dawodu,H. Dawodu
"Peterson, Steven ",Steven Peterson,Steven Peterson,Steven Peterson,S. Peterson
"Hall, Ryan ",Ryan Hall,Ryan Hall,Ryan Hall,R. Hall
"Mitchell, Bryce ",Bryce Mitchell,Bryce Mitchell,Bryce Mitchell,B. Mitchell
"Yusuff, Sodiq ",Sodiq Yusuff,Sodiq Yusuff,Sodiq Yusuff,S. Yusuff
"Aguilar, Kevin ",Kevin Aguilar,Kevin Aguilar,Kevin Aguilar,K. Aguilar
"Dawson, Grant ",Grant Dawson,Grant Dawson,Grant Dawson,G. Dawson
"Chikadze, Giga ",Giga Chikadze,Giga Chikadze,Giga Chikadze,G. Chikadze
"Henry, Danny ",Danny Henry,Danny Henry,Danny Henry,D. Henry
"Trizano, Mike ",Mike Trizano,Mike Trizano,Mike Trizano,M. Trizano
"Narimani, Nad ",Nad Narimani,Nad Narimani,Nad Narimani,N. Narimani
"Tucker, Gavin ",Gavin Tucker,Gavin Tucker,Gavin Tucker,G. Tucker
"Young, Shane ",Shane Young,Shane Young,Shane Young,S. Young
"Fishgold, Chris ",Chris Fishgold,Chris Fishgold,Chris Fishgold,C. Fishgold
"Choi, Seung-Woo ",Seung-Woo Choi,Seung-Woo Choi,Seung-Woo Choi,S. Choi
"Griffin, Jordan ",Jordan Griffin,Jordan Griffin,Jordan Griffin,J. Griffin
"Nelson, Kyle ",Kyle Nelson,Kyle Nelson,Kyle Nelson,K. Nelson
"Sayles, Matt ",Matt Sayles,Matt Sayles,Matt Sayles,M. Sayles
"Evloev, Movsar ",Movsar Evloev,Movsar Evloev,Movsar Evloev,M. Evloev
"Quarantillo, Billy ",Billy Quarantillo,Billy Quarantillo,Billy Quarantillo,B. Quarantillo
"Carlyle, Spike ",Spike Carlyle,Spike Carlyle,Spike Carlyle,S. Carlyle
"Davis, Mike ",Mike Davis,Mike Davis,Mike Davis,M. Davis
"Eduardo Garagorri, Luiz ",Luiz Eduardo Garagorri,Luiz Eduardo Garagorri,Luiz Eduardo Garagorri,L. Eduardo Garagorri
"Gracie, Kron ",Kron Gracie,Kron Gracie,Kron Gracie,K. Gracie
"Jourdain, Charles ",Charles Jourdain,Charles Jourdain,Charles Jourdain,C. Jourdain
"Landwehr, Nate ",Nate Landwehr,Nate Landwehr,Nate Landwehr,N. Landwehr
"Burns, Herbert ",Herbert Burns,Herbert Burns,Herbert Burns,H. Burns
"Grundy, Mike ",Mike Grundy,Mike Grundy,Mike Grundy,M. Grundy
"Hooper, Chase ",Chase Hooper,Chase Hooper,Chase Hooper,C. Hooper
"Woodson, Sean ",Sean Woodson,Sean Woodson,Sean Woodson,S. Woodson
"Zalal, Youssef ",Youssef Zalal,Youssef Zalal,Youssef Zalal,Y. Zalal
"Murphy, Lerone ",Lerone Murphy,Lerone Murphy,Lerone Murphy,L. Murphy
"Brown, TJ ",TJ Brown,TJ Brown,TJ Brown,T. Brown
"Cruz, Aalon ",Aalon Cruz,Aalon Cruz,Aalon Cruz,A. Cruz
"Emmers, Jamall ",Jamall Emmers,Jamall Emmers,Jamall Emmers,J. Emmers
"Khandare, Bharat ",Bharat Khandare,Bharat Khandare,Bharat Khandare,B. Khandare
"Kilburn, Jacob ",Jacob Kilburn,Jacob Kilburn,Jacob Kilburn,J. Kilburn
"Lingo, Austin ",Austin Lingo,Austin Lingo,Austin Lingo,A. Lingo
"Minner, Darrick ",Darrick Minner,Darrick Minner,Darrick Minner,D. Minner
"Rivera, Irwin ",Irwin Rivera,Irwin Rivera,Irwin Rivera,I. Rivera
"Barrett, Peter ",Peter Barrett,Peter Barrett,Peter Barrett,P. Barrett
"Murdock, Vince ",Vince Murdock,Vince Murdock,Vince Murdock,V. Murdock
"Nunes, Amanda ",Amanda Nunes,Amanda Nunes,Amanda Nunes,A. Nunes
"Anderson, Megan ",Megan Anderson,Megan Anderson,Megan Anderson,M. Anderson
"Spencer, Felicia ",Felicia Spencer,Felicia Spencer,Felicia Spencer,F. Spencer
"Fairn Dos Santos, Zarah ",Zarah Fairn Dos Santos,Zarah Fairn Dos Santos,Zarah Fairn Dos Santos,Z. Fairn Dos Santos
"Dumont, Norma ",Norma Dumont,Norma Dumont,Norma Dumont,N. Dumont
"Faber, Urijah ",Urijah Faber,Urijah Faber,Urijah Faber,U. Faber
"Yahya, Rani ",Rani Yahya,Rani Yahya,Rani Yahya,R. Yahya
"Edgar, Frankie ",Frankie Edgar,Frankie Edgar,Frankie Edgar,F. Edgar
"Aldo, José ",José Aldo,José Aldo,José Aldo,J. Aldo
"Assuncao, Raphael ",Raphael Assuncao,Raphael Assuncao,Raphael Assuncao,R. Assuncao
"Alcantara, Iuri ",Iuri Alcantara,Iuri Alcantara,Iuri Alcantara,I. Alcantara
"Wineland, Eddie ",Eddie Wineland,Eddie Wineland,Eddie Wineland,E. Wineland
"Dillashaw, T.J. ",T.J. Dillashaw,T.J. Dillashaw,T.J. Dillashaw,T. Dillashaw
"Dodson, John ",John Dodson,John Dodson,John Dodson,J. Dodson
"Cruz, Dominick ",Dominick Cruz,Dominick Cruz,Dominick Cruz,D. Cruz
"Vera, Marlon ",Marlon Vera,Marlon Vera,Marlon Vera,M. Vera
"Smolka, Louis ",Louis Smolka,Louis Smolka,Louis Smolka,L. Smolka
"Sterling, Aljamain ",Aljamain Sterling,Aljamain Sterling,Aljamain Sterling,A. Sterling
"Munhoz, Pedro ",Pedro Munhoz,Pedro Munhoz,Pedro Munhoz,P. Munhoz
"Borg, Ray ",Ray Borg,Ray Borg,Ray Borg,R. Borg
"Perez, Alejandro ",Alejandro Perez,Alejandro Perez,Alejandro Perez,A. Perez
"Font, Rob ",Rob Font,Rob Font,Rob Font,R. Font
"Barzola, Enrique ",Enrique Barzola,Enrique Barzola,Enrique Barzola,E. Barzola
"Ho Kang, Kyung ",Kyung Ho Kang,Kyung Ho Kang,Kyung Ho Kang,K. Ho Kang
"Garbrandt, Cody ",Cody Garbrandt,Cody Garbrandt,Cody Garbrandt,C. Garbrandt
"Rivera, Jimmie ",Jimmie Rivera,Jimmie Rivera,Jimmie Rivera,J. Rivera
"Saenz, Frankie ",Frankie Saenz,Frankie Saenz,Frankie Saenz,F. Saenz
"Almeida, Thomas ",Thomas Almeida,Thomas Almeida,Thomas Almeida,T. Almeida
"Kelleher, Brian ",Brian Kelleher,Brian Kelleher,Brian Kelleher,B. Kelleher
"Alberto Quinonez, Jose ",Jose Alberto Quinonez,Jose Alberto Quinonez,Jose Alberto Quinonez,J. Alberto Quinonez
"Gagnon, Mitch ",Mitch Gagnon,Mitch Gagnon,Mitch Gagnon,M. Gagnon
"Moraes, Marlon ",Marlon Moraes,Marlon Moraes,Marlon Moraes,M. Moraes
"Eduardo, Johnny ",Johnny Eduardo,Johnny Eduardo,Johnny Eduardo,J. Eduardo
"Yan, Petr ",Petr Yan,Petr Yan,Petr Yan,P. Yan
"Yadong, Song ",Song Yadong,Song Yadong,Song Yadong,S. Yadong
"Stamann, Cody ",Cody Stamann,Cody Stamann,Cody Stamann,C. Stamann
"Johns, Brett ",Brett Johns,Brett Johns,Brett Johns,B. Johns
"Simon, Ricky ",Ricky Simon,Ricky Simon,Ricky Simon,R. Simon
"Sanders, Luke ",Luke Sanders,Luke Sanders,Luke Sanders,L. Sanders
"Cannetti, Guido ",Guido Cannetti,Guido Cannetti,Guido Cannetti,G. Cannetti
"Sandhagen, Cory ",Cory Sandhagen,Cory Sandhagen,Cory Sandhagen,C. Sandhagen
"Dvalishvili, Merab ",Merab Dvalishvili,Merab Dvalishvili,Merab Dvalishvili,M. Dvalishvili
"Ewell, Andre ",Andre Ewell,Andre Ewell,Andre Ewell,A. Ewell
"Grant, David ",David Grant,David Grant,David Grant,D. Grant
"Barcelos, Raoni ",Raoni Barcelos,Raoni Barcelos,Raoni Barcelos,R. Barcelos
"Gutierrez, Chris ",Chris Gutierrez,Chris Gutierrez,Chris Gutierrez,C. Gutierrez
"Jackson, Montel ",Montel Jackson,Montel Jackson,Montel Jackson,M. Jackson
"Kenney, Casey ",Casey Kenney,Casey Kenney,Casey Kenney,C. Kenney
"Wood, Nathaniel ",Nathaniel Wood,Nathaniel Wood,Nathaniel Wood,N. Wood
"Martinez, Jonathan ",Jonathan Martinez,Jonathan Martinez,Jonathan Martinez,J. Martinez
"Morales, Vince ",Vince Morales,Vince Morales,Vince Morales,V. Morales
"Liu, Pingyuan ",Pingyuan Liu,Pingyuan Liu,Pingyuan Liu,P. Liu
"O'Malley, Sean ",Sean O'Malley,Sean O'Malley,Sean O'Malley,S. O'Malley
"Bautista, Mario ",Mario Bautista,Mario Bautista,Mario Bautista,M. Bautista
"Lopez, Benito ",Benito Lopez,Benito Lopez,Benito Lopez,B. Lopez
"Nurmagomedov, Said ",Said Nurmagomedov,Said Nurmagomedov,Said Nurmagomedov,S. Nurmagomedov
"Taha, Khalid ",Khalid Taha,Khalid Taha,Khalid Taha,K. Taha
"Colares, Felipe ",Felipe Colares,Felipe Colares,Felipe Colares,F. Colares
"Zahabi, Aiemann ",Aiemann Zahabi,Aiemann Zahabi,Aiemann Zahabi,A. Zahabi
"Alateng, Heili ",Heili Alateng,Heili Alateng,Heili Alateng,H. Alateng
"Azure, Hunter ",Hunter Azure,Hunter Azure,Hunter Azure,H. Azure
"Danaa, Batgerel ",Batgerel Danaa,Batgerel Danaa,Batgerel Danaa,B. Danaa
"Costa, Randy ",Randy Costa,Randy Costa,Randy Costa,R. Costa
"de Freitas, Geraldo ",Geraldo de Freitas,Geraldo de Freitas,Geraldo de Freitas,G. de Freitas
"Johns, Miles ",Miles Johns,Miles Johns,Miles Johns,M. Johns
"Newson, Journey ",Journey Newson,Journey Newson,Journey Newson,J. Newson
"Smith, Cole ",Cole Smith,Cole Smith,Cole Smith,C. Smith
"dos Santos, Anderson ",Anderson dos Santos,Anderson dos Santos,Anderson dos Santos,A. dos Santos
"Silva, Gabriel ",Gabriel Silva,Gabriel Silva,Gabriel Silva,G. Silva
"Pilarte, Domingo ",Domingo Pilarte,Domingo Pilarte,Domingo Pilarte,D. Pilarte
"Phillips, Kyler ",Kyler Phillips,Kyler Phillips,Kyler Phillips,K. Phillips
"Shore, Jack ",Jack Shore,Jack Shore,Jack Shore,J. Shore
"Day, Martin ",Martin Day,Martin Day,Martin Day,M. Day
"Gravely, Tony ",Tony Gravely,Tony Gravely,Tony Gravely,T. Gravely
"Osbourne, Ode ",Ode Osbourne,Ode Osbourne,Ode Osbourne,O. Osbourne
"Nurmagomedov, Umar ",Umar Nurmagomedov,Umar Nurmagomedov,Umar Nurmagomedov,U. Nurmagomedov
"Pennington, Raquel ",Raquel Pennington,Raquel Pennington,Raquel Pennington,R. Pennington
"Holm, Holly ",Holly Holm,Holly Holm,Holly Holm,H. Holm
"McMann, Sara ",Sara McMann,Sara McMann,Sara McMann,S. McMann
"Correia, Bethe ",Bethe Correia,Bethe Correia,Bethe Correia,B. Correia
"Reneau, Marion ",Marion Reneau,Marion Reneau,Marion Reneau,M. Reneau
"de Randamie, Germaine ",Germaine de Randamie,Germaine de Randamie,Germaine de Randamie,G. de Randamie
"Aldana, Irene ",Irene Aldana,Irene Aldana,Irene Aldana,I. Aldana
"Lansberg, Lina ",Lina Lansberg,Lina Lansberg,Lina Lansberg,L. Lansberg
"Moras, Sarah ",Sarah Moras,Sarah Moras,Sarah Moras,S. Moras
"Pena, Julianna ",Julianna Pena,Julianna Pena,Julianna Pena,J. Pena
"Chiasson, Macy ",Macy Chiasson,Macy Chiasson,Macy Chiasson,M. Chiasson
"Vieira, Ketlen ",Ketlen Vieira,Ketlen Vieira,Ketlen Vieira,K. Vieira
"Ladd, Aspen ",Aspen Ladd,Aspen Ladd,Aspen Ladd,A. Ladd
"Eubanks, Sijara ",Sijara Eubanks,Sijara Eubanks,Sijara Eubanks,S. Eubanks
"Macedo, Veronica ",Veronica Macedo,Veronica Macedo,Veronica Macedo,V. Macedo
"Clark, Jessy-Rose ",Jessy-Rose Clark,Jessy-Rose Clark,Jessy-Rose Clark,J. Clark
"Kunitskaya, Yana ",Yana Kunitskaya,Yana Kunitskaya,Yana Kunitskaya,Y. Kunitskaya
"Malecki, Bea ",Bea Malecki,Bea Malecki,Bea Malecki,B. Malecki
"Kianzad, Pannie ",Pannie Kianzad,Pannie Kianzad,Pannie Kianzad,P. Kianzad
"Montano, Nicco ",Nicco Montano,Nicco Montano,Nicco Montano,N. Montano
"Melo, Vanessa ",Vanessa Melo,Vanessa Melo,Vanessa Melo,V. Melo
"Avila, Julia ",Julia Avila,Julia Avila,Julia Avila,J. Avila
"Cortez, Tracy ",Tracy Cortez,Tracy Cortez,Tracy Cortez,T. Cortez
"Letson, Leah ",Leah Letson,Leah Letson,Leah Letson,L. Letson
"Rosa, Karol ",Karol Rosa,Karol Rosa,Karol Rosa,K. Rosa
"Jojua, Liana ",Liana Jojua,Liana Jojua,Liana Jojua,L. Jojua
"Santana, Duda ",Duda Santana,Duda Santana,Duda Santana,D. Santana
"Young, Shanna ",Shanna Young,Shanna Young,Shanna Young,S. Young
"Agapova, Mariya ",Mariya Agapova,Mariya Agapova,Mariya Agapova,M. Agapova
"Alpar, Sarah ",Sarah Alpar,Sarah Alpar,Sarah Alpar,S. Alpar
"Gatto, Melissa ",Melissa Gatto,Melissa Gatto,Melissa Gatto,M. Gatto
"Benavidez, Joseph ",Joseph Benavidez,Joseph Benavidez,Joseph Benavidez,J. Benavidez
"Formiga, Jussier ",Jussier Formiga,Jussier Formiga,Jussier Formiga,J. Formiga
"Elliott, Tim ",Tim Elliott,Tim Elliott,Tim Elliott,T. Elliott
"Figueiredo, Deiveson ",Deiveson Figueiredo,Deiveson Figueiredo,Deiveson Figueiredo,D. Figueiredo
"Pantoja, Alexandre ",Alexandre Pantoja,Alexandre Pantoja,Alexandre Pantoja,A. Pantoja
"Moreno, Brandon ",Brandon Moreno,Brandon Moreno,Brandon Moreno,B. Moreno
"Schnell, Matt ",Matt Schnell,Matt Schnell,Matt Schnell,M. Schnell
"Perez, Alex ",Alex Perez,Alex Perez,Alex Perez,A. Perez
"De La Rosa, Mark ",Mark De La Rosa,Mark De La Rosa,Mark De La Rosa,M. De La Rosa
"Kara-France, Kai ",Kai Kara-France,Kai Kara-France,Kai Kara-France,K. Kara-France
"Bontorin, Rogerio ",Rogerio Bontorin,Rogerio Bontorin,Rogerio Bontorin,R. Bontorin
"Espinosa, Jordan ",Jordan Espinosa,Jordan Espinosa,Jordan Espinosa,J. Espinosa
"Paiva, Raulian ",Raulian Paiva,Raulian Paiva,Raulian Paiva,R. Paiva
"Askarov, Askar ",Askar Askarov,Askar Askarov,Askar Askarov,A. Askarov
"Mudaerji, Su ",Su Mudaerji,Su Mudaerji,Su Mudaerji,S. Mudaerji
"Silva, Bruno ",Bruno Silva,Bruno Silva,Bruno Silva,B. Silva
"Dvorak, David ",David Dvorak,David Dvorak,David Dvorak,D. Dvorak
"Royval, Brandon ",Brandon Royval,Brandon Royval,Brandon Royval,B. Royval
"Doskalchuk, Aleksandr ",Aleksandr Doskalchuk,Aleksandr Doskalchuk,Aleksandr Doskalchuk,A. Doskalchuk
"Kape, Manel ",Manel Kape,Manel Kape,Manel Kape,M. Kape
"Ulanbekov, Tagir ",Tagir Ulanbekov,Tagir Ulanbekov,Tagir Ulanbekov,T. Ulanbekov
"Zhumagulov, Zhalgas ",Zhalgas Zhumagulov,Zhalgas Zhumagulov,Zhalgas Zhumagulov,Z. Zhumagulov
"Davis, Alexis ",Alexis Davis,Alexis Davis,Alexis Davis,A. Davis
"Eye, Jessica ",Jessica Eye,Jessica Eye,Jessica Eye,J. Eye
"Casey, Cortney ",Cortney Casey,Cortney Casey,Cortney Casey,C. Casey
"Shevchenko, Valentina ",Valentina Shevchenko,Valentina Shevchenko,Valentina Shevchenko,V. Shevchenko
"Chookagian, Katlyn ",Katlyn Chookagian,Katlyn Chookagian,Katlyn Chookagian,K. Chookagian
"Calderwood, Joanne ",Joanne Calderwood,Joanne Calderwood,Joanne Calderwood,J. Calderwood
"Moroz, Maryna ",Maryna Moroz,Maryna Moroz,Maryna Moroz,M. Moroz
"Murphy, Lauren ",Lauren Murphy,Lauren Murphy,Lauren Murphy,L. Murphy
"Aldrich, J.J. ",J.J. Aldrich,J.J. Aldrich,J.J. Aldrich,J. Aldrich
"Calvillo, Cynthia ",Cynthia Calvillo,Cynthia Calvillo,Cynthia Calvillo,C. Calvillo
"Evans-Smith, Ashlee ",Ashlee Evans-Smith,Ashlee Evans-Smith,Ashlee Evans-Smith,A. Evans-Smith
"Modafferi, Roxanne ",Roxanne Modafferi,Roxanne Modafferi,Roxanne Modafferi,R. Modafferi
"Robertson, Gillian ",Gillian Robertson,Gillian Robertson,Gillian Robertson,G. Robertson
"Grasso, Alexa ",Alexa Grasso,Alexa Grasso,Alexa Grasso,A. Grasso
"Romero Borella, Mara ",Mara Romero Borella,Mara Romero Borella,Mara Romero Borella,M. Romero Borella
"De La Rosa, Montana ",Montana De La Rosa,Montana De La Rosa,Montana De La Rosa,M. De La Rosa
"Yeon Kim, Ji ",Ji Yeon Kim,Ji Yeon Kim,Ji Yeon Kim,J. Yeon Kim
"Kish, Justine ",Justine Kish,Justine Kish,Justine Kish,J. Kish
"Lee, Andrea ",Andrea Lee,Andrea Lee,Andrea Lee,A. Lee
"Botelho, Poliana ",Poliana Botelho,Poliana Botelho,Poliana Botelho,P. Botelho
"Barber, Maycee ",Maycee Barber,Maycee Barber,Maycee Barber,M. Barber
"McCann, Molly ",Molly McCann,Molly McCann,Molly McCann,M. McCann
"Maia, Jennifer ",Jennifer Maia,Jennifer Maia,Jennifer Maia,J. Maia
"Shevchenko, Antonina ",Antonina Shevchenko,Antonina Shevchenko,Antonina Shevchenko,A. Shevchenko
"Cachoeira, Priscila ",Priscila Cachoeira,Priscila Cachoeira,Priscila Cachoeira,P. Cachoeira
"Dobson, Shana ",Shana Dobson,Shana Dobson,Shana Dobson,S. Dobson
"Mazo, Sabina ",Sabina Mazo,Sabina Mazo,Sabina Mazo,S. Mazo
"Araujo, Viviane ",Viviane Araujo,Viviane Araujo,Viviane Araujo,V. Araujo
"Lipski, Ariane ",Ariane Lipski,Ariane Lipski,Ariane Lipski,A. Lipski
"Kassem, Nadia ",Nadia Kassem,Nadia Kassem,Nadia Kassem,N. Kassem
"Ostovich, Rachel ",Rachel Ostovich,Rachel Ostovich,Rachel Ostovich,R. Ostovich
"Wu, Yanan ",Yanan Wu,Yanan Wu,Yanan Wu,Y. Wu
"Bueno Silva, Mayra ",Mayra Bueno Silva,Mayra Bueno Silva,Mayra Bueno Silva,M. Bueno Silva
"Carolina, Luana ",Luana Carolina,Luana Carolina,Luana Carolina,L. Carolina
"Belbita, Diana ",Diana Belbita,Diana Belbita,Diana Belbita,D. Belbita
"Procopio, Lara ",Lara Procopio,Lara Procopio,Lara Procopio,L. Procopio
"Santos, Taila ",Taila Santos,Taila Santos,Taila Santos,T. Santos
"Andrade, Jessica ",Jessica Andrade,Jessica Andrade,Jessica Andrade,J. Andrade
"Hill, Angela ",Angela Hill,Angela Hill,Angela Hill,A. Hill
"Jedrzejczyk, Joanna ",Joanna Jedrzejczyk,Joanna Jedrzejczyk,Joanna Jedrzejczyk,J. Jedrzejczyk
"Markos, Randa ",Randa Markos,Randa Markos,Randa Markos,R. Markos
"Gadelha, Claudia ",Claudia Gadelha,Claudia Gadelha,Claudia Gadelha,C. Gadelha
"Esparza, Carla ",Carla Esparza,Carla Esparza,Carla Esparza,C. Esparza
"Torres, Tecia ",Tecia Torres,Tecia Torres,Tecia Torres,T. Torres
"Kowalkiewicz, Karolina ",Karolina Kowalkiewicz,Karolina Kowalkiewicz,Karolina Kowalkiewicz,K. Kowalkiewicz
"Namajunas, Rose ",Rose Namajunas,Rose Namajunas,Rose Namajunas,R. Namajunas
"Waterson, Michelle ",Michelle Waterson,Michelle Waterson,Michelle Waterson,M. Waterson
"Herrig, Felice ",Felice Herrig,Felice Herrig,Felice Herrig,F. Herrig
"VanZant, Paige ",Paige VanZant,Paige VanZant,Paige VanZant,P. VanZant
"Yoder, Ashley ",Ashley Yoder,Ashley Yoder,Ashley Yoder,A. Yoder
"Ansaroff, Nina ",Nina Ansaroff,Nina Ansaroff,Nina Ansaroff,N. Ansaroff
"Suarez, Tatiana ",Tatiana Suarez,Tatiana Suarez,Tatiana Suarez,T. Suarez
"Zhang, Weili ",Weili Zhang,Weili Zhang,Weili Zhang,W. Zhang
"Xiaonan, Yan ",Yan Xiaonan,Yan Xiaonan,Yan Xiaonan,Y. Xiaonan
"Cifers, Hannah ",Hannah Cifers,Hannah Cifers,Hannah Cifers,H. Cifers
"Dern, Mackenzie ",Mackenzie Dern,Mackenzie Dern,Mackenzie Dern,M. Dern
"Rodriguez, Marina ",Marina Rodriguez,Marina Rodriguez,Marina Rodriguez,M. Rodriguez
"Whitmire, Emily ",Emily Whitmire,Emily Whitmire,Emily Whitmire,E. Whitmire
"Kondo, Syuri ",Syuri Kondo,Syuri Kondo,Syuri Kondo,S. Kondo
"Ribas, Amanda ",Amanda Ribas,Amanda Ribas,Amanda Ribas,A. Ribas
"Viana, Polyana ",Polyana Viana,Polyana Viana,Polyana Viana,P. Viana
"Renata Souza, Livia ",Livia Renata Souza,Livia Renata Souza,Livia Renata Souza,L. Renata Souza
"Granger, Miranda ",Miranda Granger,Miranda Granger,Miranda Granger,M. Granger
"Jandiroba, Virna ",Virna Jandiroba,Virna Jandiroba,Virna Jandiroba,V. Jandiroba
"Lemos, Amanda ",Amanda Lemos,Amanda Lemos,Amanda Lemos,A. Lemos
"Lookboonmee, Loma ",Loma Lookboonmee,Loma Lookboonmee,Loma Lookboonmee,L. Lookboonmee
"Inoue, Mizuki ",Mizuki Inoue,Mizuki Inoue,Mizuki Inoue,M. Inoue
"Van Buren, Brianna ",Brianna Van Buren,Brianna Van Buren,Brianna Van Buren,B. Van Buren
"Carnelossi, Ariane ",Ariane Carnelossi,Ariane Carnelossi,Ariane Carnelossi,A. Carnelossi
"Goldy, Hannah ",Hannah Goldy,Hannah Goldy,Hannah Goldy,H. Goldy
"Martin, Mallory ",Mallory Martin,Mallory Martin,Mallory Martin,M. Martin
"Nunes, Istela ",Istela Nunes,Istela Nunes,Istela Nunes,I. Nunes
"Asker, Cyril ",Cyril Asker,Cyril Asker,Cyril Asker,C. Asker
"Browne, Travis ",Travis Browne,Travis Browne,Travis Browne,T. Browne
"de la Rocha, Chris ",Chris de la Rocha,Chris de la Rocha,Chris de la Rocha,C. de la Rocha
"Lemos, Giacomo ",Giacomo Lemos,Giacomo Lemos,Giacomo Lemos,G. Lemos
"Hunt, Mark ",Mark Hunt,Mark Hunt,Mark Hunt,M. Hunt
"Sosnovskiy, Dmitry ",Dmitry Sosnovskiy,Dmitry Sosnovskiy,Dmitry Sosnovskiy,D. Sosnovskiy
"Wieczorek, Adam ",Adam Wieczorek,Adam Wieczorek,Adam Wieczorek,A. Wieczorek
"Murtazaliev, Khalid ",Khalid Murtazaliev,Khalid Murtazaliev,Khalid Murtazaliev,K. Murtazaliev
"Rockhold, Luke ",Luke Rockhold,Luke Rockhold,Luke Rockhold,L. Rockhold
"Braga Neto, Antonio ",Antonio Braga Neto,Antonio Braga Neto,Antonio Braga Neto,A. Braga Neto
"Smith, Trevor ",Trevor Smith,Trevor Smith,Trevor Smith,T. Smith
"Aldana, Hector ",Hector Aldana,Hector Aldana,Hector Aldana,H. Aldana
"Bahadurzada, Siyar ",Siyar Bahadurzada,Siyar Bahadurzada,Siyar Bahadurzada,S. Bahadurzada
"Hyun Kim, Dong ",Dong Hyun Kim,Dong Hyun Kim,Dong Hyun Kim,D. Hyun Kim
"Hathaway, John ",John Hathaway,John Hathaway,John Hathaway,J. Hathaway
"Jackson, Mike ",Mike Jackson,Mike Jackson,Mike Jackson,M. Jackson
"Jumeau, Luke ",Luke Jumeau,Luke Jumeau,Luke Jumeau,L. Jumeau
"Kunchenko, Alexey ",Alexey Kunchenko,Alexey Kunchenko,Alexey Kunchenko,A. Kunchenko
"Krauss, Pascal ",Pascal Krauss,Pascal Krauss,Pascal Krauss,P. Krauss
"Mina, Alberto ",Alberto Mina,Alberto Mina,Alberto Mina,A. Mina
"Naurdiev, Ismail ",Ismail Naurdiev,Ismail Naurdiev,Ismail Naurdiev,I. Naurdiev
"Punk, CM ",CM Punk,CM Punk,CM Punk,C. Punk
"Rencountre, Chance ",Chance Rencountre,Chance Rencountre,Chance Rencountre,C. Rencountre
"Touahri, Salim ",Salim Touahri,Salim Touahri,Salim Touahri,S. Touahri
"Ellenberger, Joe ",Joe Ellenberger,Joe Ellenberger,Joe Ellenberger,J. Ellenberger
"Westcott, Sheldon ",Sheldon Westcott,Sheldon Westcott,Sheldon Westcott,S. Westcott
"Gunther, John ",John Gunther,John Gunther,John Gunther,J. Gunther
"Ma, Dong-Hyun ",Dong-Hyun Ma,Dong-Hyun Ma,Dong-Hyun Ma,D. Ma
"Taisumov, Mairbek ",Mairbek Taisumov,Mairbek Taisumov,Mairbek Taisumov,M. Taisumov
"Mariano, Marcos ",Marcos Mariano,Marcos Mariano,Marcos Mariano,M. Mariano
"Mokhtarian, Suman ",Suman Mokhtarian,Suman Mokhtarian,Suman Mokhtarian,S. Mokhtarian
"White, Alex ",Alex White,Alex White,Alex White,A. White
"Bravo, Martin ",Martin Bravo,Martin Bravo,Martin Bravo,M. Bravo
"Wang, Guan ",Guan Wang,Guan Wang,Guan Wang,G. Wang
"Teymur, Daniel ",Daniel Teymur,Daniel Teymur,Daniel Teymur,D. Teymur
"Lu, Zhenhong ",Zhenhong Lu,Zhenhong Lu,Zhenhong Lu,Z. Lu
"Briones, Henry ",Henry Briones,Henry Briones,Henry Briones,H. Briones
"Ishihara, Teruto ",Teruto Ishihara,Teruto Ishihara,Teruto Ishihara,T. Ishihara
"Holdsworth, Chris ",Chris Holdsworth,Chris Holdsworth,Chris Holdsworth,C. Holdsworth
"Huachin, Carlos ",Carlos Huachin,Carlos Huachin,Carlos Huachin,C. Huachin
"Lopez, Matthew ",Matthew Lopez,Matthew Lopez,Matthew Lopez,M. Lopez
"Bernardo, Talita ",Talita Bernardo,Talita Bernardo,Talita Bernardo,T. Bernardo
"Evinger, Tonya ",Tonya Evinger,Tonya Evinger,Tonya Evinger,T. Evinger
"de Padua, Isabella ",Isabella de Padua,Isabella de Padua,Isabella de Padua,I. de Padua
"Albu, Alexandra ",Alexandra Albu,Alexandra Albu,Alexandra Albu,A. Albu
"Chambers, Alex ",Alex Chambers,Alex Chambers,Alex Chambers,A. Chambers
"Esquibel, Jodie ",Jodie Esquibel,Jodie Esquibel,Jodie Esquibel,J. Esquibel
"Penne, Jessica ",Jessica Penne,Jessica Penne,Jessica Penne,J. Penne
"Mazany, Gina ",Gina Mazany,Gina Mazany,Gina Mazany,G. Mazany
"Aguilera, Christian ",Christian Aguilera,Christian Aguilera,Christian Aguilera,C. Aguilera
"Ivy, Anthony ",Anthony Ivy,Anthony Ivy,Anthony Ivy,A. Ivy
"Solecki, Joe ",Joe Solecki,Joe Solecki,Joe Solecki,J. Solecki
"Adashev, Zarrukh ",Zarrukh Adashev,Zarrukh Adashev,Zarrukh Adashev,Z. Adashev
"Casey-Sanchez, Cortney ",Cortney Casey-Sanchez,Cortney Casey-Sanchez,Cortney Casey-Sanchez,C. Casey-Sanchez
"Green, Gabriel ",Gabriel Green,Gabriel Green,Gabriel Green,G. Green
"Ulanbekov, Tagir ",Tagir Ulanbekov,Tagir Ulanbekov,Tagir Ulanbekov,T. Ulanbekov
"Royval, Brandon ",Brandon Royval,Brandon Royval,Brandon Royval,B. Royval
"Rivera, Irwin ",Irwin Rivera,Irwin Rivera,Irwin Rivera,I. Rivera
"Sherman, Chase ",Chase Sherman,Chase Sherman,Chase Sherman,C. Sherman
"Villanueva, Ike ",Ike Villanueva,Ike Villanueva,Ike Villanueva,I. Villanueva
"Kape, Manel ",Manel Kape,Manel Kape,Manel Kape,M. Kape
"Doskalchuk, Aleksandr ",Aleksandr Doskalchuk,Aleksandr Doskalchuk,Aleksandr Doskalchuk,A. Doskalchuk
"Agapova, Mariya ",Mariya Agapova,Mariya Agapova,Mariya Agapova,M. Agapova
"Zhumagulov, Zhalgas ",Zhalgas Zhumagulov,Zhalgas Zhumagulov,Zhalgas Zhumagulov,Z. Zhumagulov
"Nurmagomedov, Umar ",Umar Nurmagomedov,Umar Nurmagomedov,Umar Nurmagomedov,U. Nurmagomedov
"Herbert, Jai ",Jai Herbert,Jai Herbert,Jai Herbert,J. Herbert
"Dunham, Evan ",Evan Dunham,Evan Dunham,Evan Dunham,E. Dunham
"Bukauskas, Modestas ",Modestas Bukauskas,Modestas Bukauskas,Modestas Bukauskas,M. Bukauskas
"Prochazka, Jiri ",Jiri Prochazka,Jiri Prochazka,Jiri Prochazka,J. Prochazka
"Bogatov, Roman ",Roman Bogatov,Roman Bogatov,Roman Bogatov,R. Bogatov
"Aspinall, Tom ",Tom Aspinall,Tom Aspinall,Tom Aspinall,T. Aspinall
"Munoz, Alex ",Alex Munoz,Alex Munoz,Alex Munoz,A. Munoz
"Lewis-Parry, Chi ",Chi Lewis-Parry,Chi Lewis-Parry,Chi Lewis-Parry,C. Lewis-Parry
"Romanov, Alexander ",Alexander Romanov,Alexander Romanov,Alexander Romanov,A. Romanov
"Barrett, Peter ",Peter Barrett,Peter Barrett,Peter Barrett,P. Barrett
"Todorovic, Dusko ",Dusko Todorovic,Dusko Todorovic,Dusko Todorovic,D. Todorovic
"Rowe, Philip ",Philip Rowe,Philip Rowe,Philip Rowe,P. Rowe
"Alpar, Sarah ",Sarah Alpar,Sarah Alpar,Sarah Alpar,S. Alpar
"Rakhmonov, Shavkat ",Shavkat Rakhmonov,Shavkat Rakhmonov,Shavkat Rakhmonov,S. Rakhmonov
"Nunes, Istela ",Istela Nunes,Istela Nunes,Istela Nunes,I. Nunes
"Felipe, Carlos ",Carlos Felipe,Carlos Felipe,Carlos Felipe,C. Felipe
"Murdock, Vince ",Vince Murdock,Vince Murdock,Vince Murdock,V. Murdock
"Silva, Bruno ",Bruno Silva,Bruno Silva,Bruno Silva,B. Silva
"Gatto, Melissa ",Melissa Gatto,Melissa Gatto,Melissa Gatto,M. Gatto
"Wisely, Eric ",Eric Wisely,Eric Wisely,Eric Wisely,E. Wisely
"Dolidze, Roman ",Roman Dolidze,Roman Dolidze,Roman Dolidze,R. Dolidze
"Volkanovski, Alex ",Alex Volkanovski,Alex Volkanovski,Alex Volkanovski,A. Volkanovski
"Rohskopf, Max ",Max Rohskopf,Max Rohskopf,Max Rohskopf,M. Rohskopf
#VALUE!,,0,0,#VALUE!
#VALUE!,,0,0,#VALUE!
#VALUE!,,0,0,#VALUE!
#VALUE!,,0,0,#VALUE!
#VALUE!,,0,0,#VALUE!
#VALUE!,,0,0,#VALUE!
#VALUE!,,0,0,#VALUE!
#VALUE!,,0,0,#VALUE!
#VALUE!,,0,0,#VALUE!
#VALUE!,,0,0,#VALUE!
#VALUE!,,0,0,#VALUE!
#VALUE!,,0,0,#VALUE!
#VALUE!,,0,0,#VALUE!
#VALUE!,,0,0,#VALUE!
#VALUE!,,0,0,#VALUE!
#VALUE!,,0,0,#VALUE!
#VALUE!,,0,0,#VALUE!
#VALUE!,,0,0,#VALUE!
#VALUE!,,0,0,#VALUE!
#VALUE!,,0,0,#VALUE!
#VALUE!,,0,0,#VALUE!
#VALUE!,,0,0,#VALUE!
#VALUE!,,0,0,#VALUE!
#VALUE!,,0,0,#VALUE!
#VALUE!,,0,0,#VALUE!
#VALUE!,,0,0,#VALUE!
#VALUE!,,0,0,#VALUE!
#VALUE!,,0,0,#VALUE!
#VALUE!,,0,0,#VALUE!
#VALUE!,,0,0,#VALUE!
#VALUE!,,0,0,#VALUE!
#VALUE!,,0,0,#VALUE!
#VALUE!,,0,0,#VALUE!
#VALUE!,,0,0,#VALUE!
#VALUE!,,0,0,#VALUE!
#VALUE!,,0,0,#VALUE!
#VALUE!,,0,0,#VALUE!
#VALUE!,,0,0,#VALUE!
#VALUE!,,0,0,#VALUE!
#VALUE!,,0,0,#VALUE!
#VALUE!,,0,0,#VALUE!
#VALUE!,,0,0,#VALUE!
#VALUE!,,0,0,#VALUE!
#VALUE!,,0,0,#VALUE!
#VALUE!,,0,0,#VALUE!
#VALUE!,,0,0,#VALUE!
#VALUE!,,0,0,#VALUE!
#VALUE!,,0,0,#VALUE!
#VALUE!,,0,0,#VALUE!
#VALUE!,,0,0,#VALUE!
#VALUE!,,0,0,#VALUE!
#VALUE!,,0,0,#VALUE!
#VALUE!,,0,0,#VALUE!
#VALUE!,,0,0,#VALUE!
#VALUE!,,0,0,#VALUE!
#VALUE!,,0,0,#VALUE!
#VALUE!,,0,0,#VALUE!
#VALUE!,,0,0,#VALUE!
#VALUE!,,0,0,#VALUE!
#VALUE!,,0,0,#VALUE!
#VALUE!,,0,0,#VALUE!
#VALUE!,,0,0,#VALUE!
#VALUE!,,0,0,#VALUE!
#VALUE!,,0,0,#VALUE!
#VALUE!,,0,0,#VALUE!
#VALUE!,,0,0,#VALUE!
#VALUE!,,0,0,#VALUE!
#VALUE!,,0,0,#VALUE!
#VALUE!,,0,0,#VALUE!
#VALUE!,,0,0,#VALUE!
#VALUE!,,0,0,#VALUE!
#VALUE!,,0,0,#VALUE!
#VALUE!,,0,0,#VALUE!
#VALUE!,,0,0,#VALUE!
#VALUE!,,0,0,#VALUE!
#VALUE!,,0,0,#VALUE!
#VALUE!,,0,0,#VALUE!
#VALUE!,,0,0,#VALUE!
#VALUE!,,0,0,#VALUE!
#VALUE!,,0,0,#VALUE!
#VALUE!,,0,0,#VALUE!
#VALUE!,,0,0,#VALUE!
#VALUE!,,0,0,#VALUE!
#VALUE!,,0,0,#VALUE!
#VALUE!,,0,0,#VALUE!
#VALUE!,,0,0,#VALUE!
#VALUE!,,0,0,#VALUE!
#VALUE!,,0,0,#VALUE!
#VALUE!,,0,0,#VALUE!
#VALUE!,,0,0,#VALUE!
#VALUE!,,0,0,#VALUE!
#VALUE!,,0,0,#VALUE!
#VALUE!,,0,0,#VALUE!
#VALUE!,,0,0,#VALUE!
#VALUE!,,0,0,#VALUE!
#VALUE!,,0,0,#VALUE!
#VALUE!,,0,0,#VALUE!
#VALUE!,,0,0,#VALUE!
#VALUE!,,0,0,#VALUE!
#VALUE!,,0,0,#VALUE!
#VALUE!,,0,0,#VALUE!
#VALUE!,,0,0,#VALUE!
#VALUE!,,0,0,#VALUE!
#VALUE!,,0,0,#VALUE!
#VALUE!,,0,0,#VALUE!
#VALUE!,,0,0,#VALUE!
#VALUE!,,0,0,#VALUE!
#VALUE!,,0,0,#VALUE!
#VALUE!,,0,0,#VALUE!
#VALUE!,,0,0,#VALUE!
#VALUE!,,0,0,#VALUE!
#VALUE!,,0,0,#VALUE!
#VALUE!,,0,0,#VALUE!
#VALUE!,,0,0,#VALUE!
#VALUE!,,0,0,#VALUE!
#VALUE!,,0,0,#VALUE!
#VALUE!,,0,0,#VALUE!
#VALUE!,,0,0,#VALUE!
#VALUE!,,0,0,#VALUE!
#VALUE!,,0,0,#VALUE!
#VALUE!,,0,0,#VALUE!
#VALUE!,,0,0,#VALUE!
#VALUE!,,0,0,#VALUE!
#VALUE!,,0,0,#VALUE!
#VALUE!,,0,0,#VALUE!
#VALUE!,,0,0,#VALUE!
#VALUE!,,0,0,#VALUE!
#VALUE!,,0,0,#VALUE!
#VALUE!,,0,0,#VALUE!
#VALUE!,,0,0,#VALUE!
#VALUE!,,0,0,#VALUE!
#VALUE!,,0,0,#VALUE!
#VALUE!,,0,0,#VALUE!
#VALUE!,,0,0,#VALUE!
#VALUE!,,0,0,#VALUE!
#VALUE!,,0,0,#VALUE!
#VALUE!,,0,0,#VALUE!
#VALUE!,,0,0,#VALUE!
#VALUE!,,0,0,#VALUE!
#VALUE!,,0,0,#VALUE!
#VALUE!,,0,0,#VALUE!
#VALUE!,,0,0,#VALUE!
#VALUE!,,0,0,#VALUE!
#VALUE!,,0,0,#VALUE!
#VALUE!,,0,0,#VALUE!
#VALUE!,,0,0,#VALUE!
#VALUE!,,0,0,#VALUE!
#VALUE!,,0,0,#VALUE!
#VALUE!,,0,0,#VALUE!
#VALUE!,,0,0,#VALUE!
#VALUE!,,0,0,#VALUE!
#VALUE!,,0,0,#VALUE!
#VALUE!,,0,0,#VALUE!
#VALUE!,,0,0,#VALUE!
#VALUE!,,0,0,#VALUE!
#VALUE!,,0,0,#VALUE!
#VALUE!,,0,0,#VALUE!
#VALUE!,,0,0,#VALUE!
#VALUE!,,0,0,#VALUE!
#VALUE!,,0,0,#VALUE!
#VALUE!,,0,0,#VALUE!
#VALUE!,,0,0,#VALUE!
#VALUE!,,0,0,#VALUE!
#VALUE!,,0,0,#VALUE!
#VALUE!,,0,0,#VALUE!
#VALUE!,,0,0,#VALUE!
#VALUE!,,0,0,#VALUE!
#VALUE!,,0,0,#VALUE!
#VALUE!,,0,0,#VALUE!
#VALUE!,,0,0,#VALUE!
#VALUE!,,0,0,#VALUE!
#VALUE!,,0,0,#VALUE!
#VALUE!,,0,0,#VALUE!
#VALUE!,,0,0,#VALUE!
#VALUE!,,0,0,#VALUE!
#VALUE!,,0,0,#VALUE!
#VALUE!,,0,0,#VALUE!
#VALUE!,,0,0,#VALUE!
#VALUE!,,0,0,#VALUE!
#VALUE!,,0,0,#VALUE!
#VALUE!,,0,0,#VALUE!
#VALUE!,,0,0,#VALUE!
#VALUE!,,0,0,#VALUE!
#VALUE!,,0,0,#VALUE!
#VALUE!,,0,0,#VALUE!
#VALUE!,,0,0,#VALUE!
#VALUE!,,0,0,#VALUE!
#VALUE!,,0,0,#VALUE!
#VALUE!,,0,0,#VALUE!
#VALUE!,,0,0,#VALUE!
#VALUE!,,0,0,#VALUE!
#VALUE!,,0,0,#VALUE!
#VALUE!,,0,0,#VALUE!
#VALUE!,,0,0,#VALUE!
#VALUE!,,0,0,#VALUE!
#VALUE!,,0,0,#VALUE!
#VALUE!,,0,0,#VALUE!
#VALUE!,,0,0,#VALUE!
#VALUE!,,0,0,#VALUE!
#VALUE!,,0,0,#VALUE!
#VALUE!,,0,0,#VALUE!
#VALUE!,,0,0,#VALUE!
#VALUE!,,0,0,#VALUE!
#VALUE!,,0,0,#VALUE!
#VALUE!,,0,0,#VALUE!
#VALUE!,,0,0,#VALUE!
#VALUE!,,0,0,#VALUE!
#VALUE!,,0,0,#VALUE!
#VALUE!,,0,0,#VALUE!
#VALUE!,,0,0,#VALUE!
#VALUE!,,0,0,#VALUE!
#VALUE!,,0,0,#VALUE!
#VALUE!,,0,0,#VALUE!
#VALUE!,,0,0,#VALUE!
#VALUE!,,0,0,#VALUE!
#VALUE!,,0,0,#VALUE!
#VALUE!,,0,0,#VALUE!
#VALUE!,,0,0,#VALUE!
#VALUE!,,0,0,#VALUE!
#VALUE!,,0,0,#VALUE!
#VALUE!,,0,0,#VALUE!
#VALUE!,,0,0,#VALUE!
#VALUE!,,0,0,#VALUE!
#VALUE!,,0,0,#VALUE!
#VALUE!,,0,0,#VALUE!
#VALUE!,,0,0,#VALUE!
#VALUE!,,0,0,#VALUE!
#VALUE!,,0,0,#VALUE!
#VALUE!,,0,0,#VALUE!
#VALUE!,,0,0,#VALUE!
#VALUE!,,0,0,#VALUE!
#VALUE!,,0,0,#VALUE!
#VALUE!,,0,0,#VALUE!
#VALUE!,,0,0,#VALUE!
#VALUE!,,0,0,#VALUE!
#VALUE!,,0,0,#VALUE!
#VALUE!,,0,0,#VALUE!
#VALUE!,,0,0,#VALUE!
#VALUE!,,0,0,#VALUE!
#VALUE!,,0,0,#VALUE!
#VALUE!,,0,0,#VALUE!
#VALUE!,,0,0,#VALUE!
#VALUE!,,0,0,#VALUE!
#VALUE!,,0,0,#VALUE!
#VALUE!,,0,0,#VALUE!
#VALUE!,,0,0,#VALUE!
#VALUE!,,0,0,#VALUE!
#VALUE!,,0,0,#VALUE!
#VALUE!,,0,0,#VALUE!
#VALUE!,,0,0,#VALUE!
#VALUE!,,0,0,#VALUE!
#VALUE!,,0,0,#VALUE!
#VALUE!,,0,0,#VALUE!
#VALUE!,,0,0,#VALUE!
#VALUE!,,0,0,#VALUE!
#VALUE!,,0,0,#VALUE!
#VALUE!,,0,0,#VALUE!
#VALUE!,,0,0,#VALUE!
#VALUE!,,0,0,#VALUE!
#VALUE!,,0,0,#VALUE!
#VALUE!,,0,0,#VALUE!
#VALUE!,,0,0,#VALUE!
#VALUE!,,0,0,#VALUE!
#VALUE!,,0,0,#VALUE!
#VALUE!,,0,0,#VALUE!
#VALUE!,,0,0,#VALUE!
#VALUE!,,0,0,#VALUE!
#VALUE!,,0,0,#VALUE!
#VALUE!,,0,0,#VALUE!
#VALUE!,,0,0,#VALUE!
#VALUE!,,0,0,#VALUE!
#VALUE!,,0,0,#VALUE!
#VALUE!,,0,0,#VALUE!
#VALUE!,,0,0,#VALUE!
#VALUE!,,0,0,#VALUE!
#VALUE!,,0,0,#VALUE!
#VALUE!,,0,0,#VALUE!
#VALUE!,,0,0,#VALUE!
#VALUE!,,0,0,#VALUE!
#VALUE!,,0,0,#VALUE!
#VALUE!,,0,0,#VALUE!
#VALUE!,,0,0,#VALUE!
#VALUE!,,0,0,#VALUE!
#VALUE!,,0,0,#VALUE!
#VALUE!,,0,0,#VALUE!
#VALUE!,,0,0,#VALUE!
#VALUE!,,0,0,#VALUE!
#VALUE!,,0,0,#VALUE!
#VALUE!,,0,0,#VALUE!
#VALUE!,,0,0,#VALUE!
,,0,0,#VALUE!
,,0,0,#VALUE!
,,0,0,#VALUE!
,,0,0,#VALUE!
,,0,0,#VALUE!
,,0,0,#VALUE!
,,0,0,#VALUE!
,,0,0,#VALUE!
,,0,0,#VALUE!
,,0,0,#VALUE!
,,0,0,#VALUE!
,,0,0,#VALUE!
,,0,0,#VALUE!
,,0,0,#VALUE!
,,0,0,#VALUE!
,,0,0,#VALUE!
,,0,0,#VALUE!
,,0,0,#VALUE!
,,0,0,#VALUE!
,,0,0,#VALUE!
,,0,0,#VALUE!
,,0,0,#VALUE!
,,0,0,#VALUE!
,,0,0,#VALUE!
,,0,0,#VALUE!
,,0,0,#VALUE!
,,0,0,#VALUE!
,,0,0,#VALUE!
,,0,0,#VALUE!
,,0,0,#VALUE!
,,0,0,#VALUE!
,,0,0,#VALUE!
,,0,0,#VALUE!
,,0,0,#VALUE!
,,0,0,#VALUE!
,,0,0,#VALUE!
,,0,0,#VALUE!
,,0,0,#VALUE!
,,0,,#VALUE!
,,,,#VALUE!
,,,,#VALUE!
,,,,#VALUE!
,,,,#VALUE!
,,,,#VALUE!
,,,,#VALUE!
,,,,#VALUE!
,,,,#VALUE!
,,,,#VALUE!
,,,,#VALUE!
,,,,#VALUE!
,,,,#VALUE!
,,,,#VALUE!
,,,,#VALUE!
,,,,#VALUE!
,,,,#VALUE!
,,,,#VALUE!
,,,,#VALUE!
,,,,#VALUE!
,,,,#VALUE!
,,,,#VALUE!
,,,,#VALUE!
,,,,#VALUE!
,,,,#VALUE!
,,,,#VALUE!
,,,,#VALUE!
,,,,#VALUE!
,,,,#VALUE!
,,,,#VALUE!
,,,,#VALUE!
,,,,#VALUE!
,,,,#VALUE!
,,,,#VALUE!
,,,,#VALUE!
,,,,#VALUE!
,,,,#VALUE!
,,,,#VALUE!
,,,,#VALUE!
,,,,#VALUE!
,,,,#VALUE!
,,,,#VALUE!
,,,,#VALUE!
,,,,#VALUE!
,,,,#VALUE!
,,,,#VALUE!
,,,,#VALUE!
,,,,#VALUE!
,,,,#VALUE!
,,,,#VALUE!
,,,,#VALUE!
,,,,#VALUE!
,,,,#VALUE!
,,,,#VALUE!
,,,,#VALUE!
,,,,#VALUE!
,,,,#VALUE!
,,,,#VALUE!
,,,,#VALUE!
,,,,#VALUE!
,,,,#VALUE!
,,,,#VALUE!
,,,,#VALUE!
,,,,#VALUE!
,,,,#VALUE!
,,,,#VALUE!
,,,,#VALUE!
,,,,#VALUE!
,,,,#VALUE!
,,,,#VALUE!
,,,,#VALUE!
,,,,#VALUE!
,,,,#VALUE!
,,,,#VALUE!
,,,,#VALUE!
,,,,#VALUE!
,,,,#VALUE!
,,,,#VALUE!
,,,,#VALUE!
,,,,#VALUE!
,,,,#VALUE!
,,,,#VALUE!
,,,,#VALUE!
,,,,#VALUE!
,,,,#VALUE!
,,,,#VALUE!
,,,,#VALUE!
,,,,#VALUE!
,,,,#VALUE!
,,,,#VALUE!
,,,,#VALUE!
,,,,#VALUE!
,,,,#VALUE!
,,,,#VALUE!
,,,,#VALUE!
,,,,#VALUE!
,,,,#VALUE!
,,,,#VALUE!
,,,,#VALUE!
,,,,#VALUE!
,,,,#VALUE!
,,,,#VALUE!
,,,,#VALUE!
,,,,#VALUE!
,,,,#VALUE!
,,,,#VALUE!
,,,,#VALUE!
,,,,#VALUE!
,,,,#VALUE!
,,,,#VALUE!
,,,,#VALUE!
,,,,#VALUE!
,,,,#VALUE!
,,,,#VALUE!
,,,,#VALUE!
,,,,#VALUE!
,,,,#VALUE!
,,,,#VALUE!
,,,,#VALUE!
,,,,#VALUE!
,,,,#VALUE!
,,,,#VALUE!
,,,,#VALUE!
,,,,#VALUE!
,,,,#VALUE!
,,,,#VALUE!
,,,,#VALUE!
,,,,#VALUE!
,,,,#VALUE!
,,,,#VALUE!
,,,,#VALUE!
,,,,#VALUE!
,,,,#VALUE!
,,,,#VALUE!
,,,,#VALUE!
,,,,#VALUE!
,,,,#VALUE!
,,,,#VALUE!
,,,,#VALUE!
,,,,. 
,,,,. 
,,,,. 
